-------------------------------------------------------------------------------
Test set: com.emerio.bootcamp.configservice.ConfigServiceApplicationTests
-------------------------------------------------------------------------------
Tests run: 1, Failures: 0, Errors: 0, Skipped: 0, Time elapsed: 17.046 s - in com.emerio.bootcamp.configservice.ConfigServiceApplicationTests
